<svg xmlns="http://www.w3.org/2000/svg" viewBox="0 0 485 533">
    <defs>
        <style>
            .cls-1,.cls-3,.cls-4{fill:none}.cls-2,.cls-5{fill:#fff}.cls-2,.cls-3{stroke:#212121;stroke-width:3px}.cls-4{stroke:#ccc}.cls-6,.cls-7{fill:#212121;font-size:12px}.cls-6{font-family:Montserrat-Bold,Montserrat;font-weight:700}.cls-7{font-family:Montserrat-Regular,Montserrat}.cls-8,.cls-9{stroke:none}
        </style>
    </defs>
    <g id="plot_front_f4" data-name="plot front f4" transform="translate(-80 -372)">
        <path id="Rectangle_1990" d="M0 0h485v533H0z" class="cls-1" data-name="Rectangle 1990" transform="translate(80 372)"/>
        <g id="Group_3025" data-name="Group 3025" transform="translate(-5.795 -39)">
            <path id="Path_3225" d="M3751.8 4245.377h-265s39.248 110.8 66.288 220.761 41.872 219.068 41.872 219.068h45.22s15.393-107.941 43.3-217.9 68.32-221.929 68.32-221.929z" class="cls-2" data-name="Path 3225" transform="translate(-3332 -3746.377)"/>
            <path id="Line_387" d="M0 0v379.037" class="cls-3" data-name="Line 387" transform="translate(285.6 559.963)"/>
            <path id="Path_3226" d="M3487.3 4245.377L3617.46 4306l134.181-60.621z" class="cls-2" data-name="Path 3226" transform="translate(-3331.935 -3746.377)"/>
        </g>
        <path id="Path_3227" d="M3771.053 4272.52h8v440h-8" class="cls-4" data-name="Path 3227" transform="translate(-3327.053 -3812.02)"/>
        <path id="Path_3230" d="M3771.053 4272.519h8v266h-8" class="cls-4" data-name="Path 3230" transform="rotate(-90 36.517 4162.036)"/>
        <g id="Group_3029" data-name="Group 3029" transform="translate(13 60)">
            <g id="Path_3235" class="cls-5" data-name="Path 3235">
                <path d="M47.5 47.09L15.49 26.718l-1.952-48.767L47.5.27v46.82z" class="cls-8" transform="translate(193 507)"/>
                <path d="M47 46.178V.54L14.077-21.096l1.901 47.533L47 46.178M48 48L15 27l-2-50L48 0v48z" class="cls-9" transform="translate(193 507)"/>
            </g>
            <g id="Path_3236" class="cls-5" data-name="Path 3236">
                <path d="M39.5 31.74L15.493 14.105l-.966-33.182L39.5-3.36v35.1z" class="cls-8" transform="translate(207 598)"/>
                <path d="M39 30.752V-3.084L15.054-18.155l.931 32.002L39 30.752m1 1.975L15 14.364 14-20 40-3.636v36.363z" class="cls-9" transform="translate(207 598)"/>
            </g>
            <g id="Path_3237" class="cls-5" data-name="Path 3237">
                <path d="M15.5 47.462V.356l34.94-24.357-2.925 50.028L15.5 47.462z" class="cls-8" transform="translate(277 507)"/>
                <path d="M16 46.526l31.03-20.777L49.882-23 16 .617v45.909m-1 1.873V.095L51-25l-3 51.304-33 22.095z" class="cls-9" transform="translate(277 507)"/>
            </g>
            <g id="Path_3238" class="cls-5" data-name="Path 3238">
                <path d="M15.5 31.771V-3.366l26.92-17.656-2.9 36.11L15.5 31.77z" class="cls-8" transform="translate(271 598.513)"/>
                <path d="M16 30.815l23.041-16.003 2.799-34.855L16-3.096v33.911m-1 1.912V-3.636L43-22l-3 37.364-25 17.363z" class="cls-9" transform="translate(271 598.513)"/>
            </g>
        </g>
        <g id="Group_3107" data-name="Group 3107" transform="translate(215 252)">
            <text id="Height" class="cls-6" transform="translate(251 423)">
                <tspan x="0" y="0">Height</tspan>
            </text>
            <text id="_700_mm" class="cls-7" data-name="700 mm" transform="translate(251 442)">
                <tspan x="0" y="0">700 mm</tspan>
            </text>
        </g>
        <text id="Width" class="cls-6" transform="translate(282 384)">
            <tspan x="-19.896" y="0">Width</tspan>
        </text>
        <text id="_400_mm" class="cls-7" data-name="400 mm" transform="translate(282 403)">
            <tspan x="-26.214" y="0">400 mm</tspan>
        </text>
    </g>
</svg>
